﻿<?xml version="1.0" encoding="UTF-8"?>
<TestRun id="e6bca2ed-b402-4324-9f9c-f03ae1158809" name="bernt@HPZ220W7M005 2013-09-05 08:22:42" runUser="BOE\bernt" xmlns="http://microsoft.com/schemas/VisualStudio/TeamTest/2010">
  <TestSettings name="Local" id="a7624565-4c06-455e-a43d-567dd62e86a6">
    <Description>These are default test settings for a local test run.</Description>
    <Deployment enabled="false" runDeploymentRoot="bernt_HPZ220W7M005 2013-09-05 08_22_42">
      <DeploymentItem filename="C:\Local Project Files\sharpblocks.net\SharpBlocks.Net\bin\Debug\GalaSoft.MvvmLight.WPF4.dll" />
      <DeploymentItem filename="C:\Local Project Files\sharpblocks.net\SharpBlocks.Net.Tests.Pex\MolesAssemblies\SharpBlocks.Net.Moles.dll" />
      <DeploymentItem filename="C:\Local Project Files\sharpblocks.net\SharpBlocks.Net\bin\Debug\SharpBlocks.Net.exe" />
    </Deployment>
    <Execution>
      <TestTypeSpecific />
      <AgentRule name="Execution Agents">
      </AgentRule>
    </Execution>
  </TestSettings>
  <Times creation="2013-09-05T08:22:42.0793689-04:00" queuing="2013-09-05T08:22:42.1483758-04:00" start="2013-09-05T08:22:42.1513761-04:00" finish="2013-09-05T08:22:42.3583968-04:00" />
  <ResultSummary outcome="Completed">
    <Counters total="6" executed="6" passed="6" error="0" failed="0" timeout="0" aborted="0" inconclusive="0" passedButRunAborted="0" notRunnable="0" notExecuted="0" disconnected="0" warning="0" completed="0" inProgress="0" pending="0" />
  </ResultSummary>
  <TestDefinitions>
    <UnitTest name="ConvertToBoolean162" storage="c:\local project files\sharpblocks.net\sharpblocks.net.tests.pex\bin\debug\sharpblocks.net.tests.pex.dll" id="c2e1ca2a-24ec-ed01-b28e-fc50784bcc47">
      <Execution id="c1330fc2-e130-4999-afb9-ca232fe5a2fe" />
      <TestMethod codeBase="C:/Local Project Files/sharpblocks.net/SharpBlocks.Net.Tests.Pex/bin/Debug/SharpBlocks.Net.Tests.Pex.DLL" adapterTypeName="Microsoft.VisualStudio.TestTools.TestTypes.Unit.UnitTestAdapter, Microsoft.VisualStudio.QualityTools.Tips.UnitTest.Adapter, Version=10.0.0.0, Culture=neutral, PublicKeyToken=b03f5f7f11d50a3a" className="SharpBlocks.Net.Core.XmlTypeConverterTest, SharpBlocks.Net.Tests.Pex, Version=0.0.0.0, Culture=neutral, PublicKeyToken=null" name="ConvertToBoolean162" />
    </UnitTest>
    <UnitTest name="ConvertToBoolean764" storage="c:\local project files\sharpblocks.net\sharpblocks.net.tests.pex\bin\debug\sharpblocks.net.tests.pex.dll" id="0e89c735-daf5-6523-ddc8-b187eaf844c9">
      <Execution id="390b332e-ecbb-46df-a2e5-4683bee16d5e" />
      <TestMethod codeBase="C:/Local Project Files/sharpblocks.net/SharpBlocks.Net.Tests.Pex/bin/Debug/SharpBlocks.Net.Tests.Pex.DLL" adapterTypeName="Microsoft.VisualStudio.TestTools.TestTypes.Unit.UnitTestAdapter, Microsoft.VisualStudio.QualityTools.Tips.UnitTest.Adapter, Version=10.0.0.0, Culture=neutral, PublicKeyToken=b03f5f7f11d50a3a" className="SharpBlocks.Net.Core.XmlTypeConverterTest, SharpBlocks.Net.Tests.Pex, Version=0.0.0.0, Culture=neutral, PublicKeyToken=null" name="ConvertToBoolean764" />
    </UnitTest>
    <UnitTest name="ConvertToBoolean551" storage="c:\local project files\sharpblocks.net\sharpblocks.net.tests.pex\bin\debug\sharpblocks.net.tests.pex.dll" id="7ff11533-ff32-696d-2107-1dfea48b4a3d">
      <Execution id="37577f92-ca6d-40a2-af6d-c25e087ffbab" />
      <TestMethod codeBase="C:/Local Project Files/sharpblocks.net/SharpBlocks.Net.Tests.Pex/bin/Debug/SharpBlocks.Net.Tests.Pex.DLL" adapterTypeName="Microsoft.VisualStudio.TestTools.TestTypes.Unit.UnitTestAdapter, Microsoft.VisualStudio.QualityTools.Tips.UnitTest.Adapter, Version=10.0.0.0, Culture=neutral, PublicKeyToken=b03f5f7f11d50a3a" className="SharpBlocks.Net.Core.XmlTypeConverterTest, SharpBlocks.Net.Tests.Pex, Version=0.0.0.0, Culture=neutral, PublicKeyToken=null" name="ConvertToBoolean551" />
    </UnitTest>
    <UnitTest name="ConvertToBoolean503" storage="c:\local project files\sharpblocks.net\sharpblocks.net.tests.pex\bin\debug\sharpblocks.net.tests.pex.dll" id="ec68ea46-0b68-d4a4-607e-02caf8beffac">
      <Execution id="d1fd9e4d-5a70-4368-9818-208bf1c8142a" />
      <TestMethod codeBase="C:/Local Project Files/sharpblocks.net/SharpBlocks.Net.Tests.Pex/bin/Debug/SharpBlocks.Net.Tests.Pex.DLL" adapterTypeName="Microsoft.VisualStudio.TestTools.TestTypes.Unit.UnitTestAdapter, Microsoft.VisualStudio.QualityTools.Tips.UnitTest.Adapter, Version=10.0.0.0, Culture=neutral, PublicKeyToken=b03f5f7f11d50a3a" className="SharpBlocks.Net.Core.XmlTypeConverterTest, SharpBlocks.Net.Tests.Pex, Version=0.0.0.0, Culture=neutral, PublicKeyToken=null" name="ConvertToBoolean503" />
    </UnitTest>
    <UnitTest name="ConvertFromBoolean958" storage="c:\local project files\sharpblocks.net\sharpblocks.net.tests.pex\bin\debug\sharpblocks.net.tests.pex.dll" id="eb94910b-8d39-52d4-bed3-c3293a8487db">
      <Execution id="be13f240-1524-45e4-95cf-287232fac47d" />
      <TestMethod codeBase="C:/Local Project Files/sharpblocks.net/SharpBlocks.Net.Tests.Pex/bin/Debug/SharpBlocks.Net.Tests.Pex.DLL" adapterTypeName="Microsoft.VisualStudio.TestTools.TestTypes.Unit.UnitTestAdapter, Microsoft.VisualStudio.QualityTools.Tips.UnitTest.Adapter, Version=10.0.0.0, Culture=neutral, PublicKeyToken=b03f5f7f11d50a3a" className="SharpBlocks.Net.Core.XmlTypeConverterTest, SharpBlocks.Net.Tests.Pex, Version=0.0.0.0, Culture=neutral, PublicKeyToken=null" name="ConvertFromBoolean958" />
    </UnitTest>
    <UnitTest name="ConvertFromBoolean676" storage="c:\local project files\sharpblocks.net\sharpblocks.net.tests.pex\bin\debug\sharpblocks.net.tests.pex.dll" id="82b1de9f-a368-53c3-2cf0-430628a3baad">
      <Execution id="e66c17a1-d66d-4c5c-9e6c-eba35c9d54f0" />
      <TestMethod codeBase="C:/Local Project Files/sharpblocks.net/SharpBlocks.Net.Tests.Pex/bin/Debug/SharpBlocks.Net.Tests.Pex.DLL" adapterTypeName="Microsoft.VisualStudio.TestTools.TestTypes.Unit.UnitTestAdapter, Microsoft.VisualStudio.QualityTools.Tips.UnitTest.Adapter, Version=10.0.0.0, Culture=neutral, PublicKeyToken=b03f5f7f11d50a3a" className="SharpBlocks.Net.Core.XmlTypeConverterTest, SharpBlocks.Net.Tests.Pex, Version=0.0.0.0, Culture=neutral, PublicKeyToken=null" name="ConvertFromBoolean676" />
    </UnitTest>
  </TestDefinitions>
  <TestLists>
    <TestList name="Results Not in a List" id="8c84fa94-04c1-424b-9868-57a2d4851a1d" />
    <TestList name="All Loaded Results" id="19431567-8539-422a-85d7-44ee4e166bda" />
  </TestLists>
  <TestEntries>
    <TestEntry testId="0e89c735-daf5-6523-ddc8-b187eaf844c9" executionId="390b332e-ecbb-46df-a2e5-4683bee16d5e" testListId="8c84fa94-04c1-424b-9868-57a2d4851a1d" />
    <TestEntry testId="7ff11533-ff32-696d-2107-1dfea48b4a3d" executionId="37577f92-ca6d-40a2-af6d-c25e087ffbab" testListId="8c84fa94-04c1-424b-9868-57a2d4851a1d" />
    <TestEntry testId="82b1de9f-a368-53c3-2cf0-430628a3baad" executionId="e66c17a1-d66d-4c5c-9e6c-eba35c9d54f0" testListId="8c84fa94-04c1-424b-9868-57a2d4851a1d" />
    <TestEntry testId="c2e1ca2a-24ec-ed01-b28e-fc50784bcc47" executionId="c1330fc2-e130-4999-afb9-ca232fe5a2fe" testListId="8c84fa94-04c1-424b-9868-57a2d4851a1d" />
    <TestEntry testId="eb94910b-8d39-52d4-bed3-c3293a8487db" executionId="be13f240-1524-45e4-95cf-287232fac47d" testListId="8c84fa94-04c1-424b-9868-57a2d4851a1d" />
    <TestEntry testId="ec68ea46-0b68-d4a4-607e-02caf8beffac" executionId="d1fd9e4d-5a70-4368-9818-208bf1c8142a" testListId="8c84fa94-04c1-424b-9868-57a2d4851a1d" />
  </TestEntries>
  <Results>
    <UnitTestResult executionId="390b332e-ecbb-46df-a2e5-4683bee16d5e" testId="0e89c735-daf5-6523-ddc8-b187eaf844c9" testName="ConvertToBoolean764" computerName="HPZ220W7M005" duration="00:00:00.0100299" startTime="2013-09-05T08:22:42.1533763-04:00" endTime="2013-09-05T08:22:42.3363946-04:00" testType="13cdc9d9-ddb5-4fa4-a97d-d965ccfc6d4b" outcome="Passed" testListId="8c84fa94-04c1-424b-9868-57a2d4851a1d" relativeResultsDirectory="390b332e-ecbb-46df-a2e5-4683bee16d5e">
    </UnitTestResult>
    <UnitTestResult executionId="37577f92-ca6d-40a2-af6d-c25e087ffbab" testId="7ff11533-ff32-696d-2107-1dfea48b4a3d" testName="ConvertToBoolean551" computerName="HPZ220W7M005" duration="00:00:00.0001642" startTime="2013-09-05T08:22:42.3383948-04:00" endTime="2013-09-05T08:22:42.3403950-04:00" testType="13cdc9d9-ddb5-4fa4-a97d-d965ccfc6d4b" outcome="Passed" testListId="8c84fa94-04c1-424b-9868-57a2d4851a1d" relativeResultsDirectory="37577f92-ca6d-40a2-af6d-c25e087ffbab">
    </UnitTestResult>
    <UnitTestResult executionId="e66c17a1-d66d-4c5c-9e6c-eba35c9d54f0" testId="82b1de9f-a368-53c3-2cf0-430628a3baad" testName="ConvertFromBoolean676" computerName="HPZ220W7M005" duration="00:00:00.0002716" startTime="2013-09-05T08:22:42.3403950-04:00" endTime="2013-09-05T08:22:42.3423952-04:00" testType="13cdc9d9-ddb5-4fa4-a97d-d965ccfc6d4b" outcome="Passed" testListId="8c84fa94-04c1-424b-9868-57a2d4851a1d" relativeResultsDirectory="e66c17a1-d66d-4c5c-9e6c-eba35c9d54f0">
    </UnitTestResult>
    <UnitTestResult executionId="c1330fc2-e130-4999-afb9-ca232fe5a2fe" testId="c2e1ca2a-24ec-ed01-b28e-fc50784bcc47" testName="ConvertToBoolean162" computerName="HPZ220W7M005" duration="00:00:00.0001545" startTime="2013-09-05T08:22:42.3433953-04:00" endTime="2013-09-05T08:22:42.3453955-04:00" testType="13cdc9d9-ddb5-4fa4-a97d-d965ccfc6d4b" outcome="Passed" testListId="8c84fa94-04c1-424b-9868-57a2d4851a1d" relativeResultsDirectory="c1330fc2-e130-4999-afb9-ca232fe5a2fe">
    </UnitTestResult>
    <UnitTestResult executionId="be13f240-1524-45e4-95cf-287232fac47d" testId="eb94910b-8d39-52d4-bed3-c3293a8487db" testName="ConvertFromBoolean958" computerName="HPZ220W7M005" duration="00:00:00.0001712" startTime="2013-09-05T08:22:42.3463956-04:00" endTime="2013-09-05T08:22:42.3473957-04:00" testType="13cdc9d9-ddb5-4fa4-a97d-d965ccfc6d4b" outcome="Passed" testListId="8c84fa94-04c1-424b-9868-57a2d4851a1d" relativeResultsDirectory="be13f240-1524-45e4-95cf-287232fac47d">
    </UnitTestResult>
    <UnitTestResult executionId="d1fd9e4d-5a70-4368-9818-208bf1c8142a" testId="ec68ea46-0b68-d4a4-607e-02caf8beffac" testName="ConvertToBoolean503" computerName="HPZ220W7M005" duration="00:00:00.0001584" startTime="2013-09-05T08:22:42.3483958-04:00" endTime="2013-09-05T08:22:42.3503960-04:00" testType="13cdc9d9-ddb5-4fa4-a97d-d965ccfc6d4b" outcome="Passed" testListId="8c84fa94-04c1-424b-9868-57a2d4851a1d" relativeResultsDirectory="d1fd9e4d-5a70-4368-9818-208bf1c8142a">
    </UnitTestResult>
  </Results>
</TestRun>